<?xml version="1.0" encoding="UTF-8" standalone="no"?>
<!-- Created with Inkscape (http://www.inkscape.org/) -->

<svg
   xmlns:dc="http://purl.org/dc/elements/1.1/"
   xmlns:cc="http://creativecommons.org/ns#"
   xmlns:rdf="http://www.w3.org/1999/02/22-rdf-syntax-ns#"
   xmlns:svg="http://www.w3.org/2000/svg"
   xmlns="http://www.w3.org/2000/svg"
   xmlns:sodipodi="http://sodipodi.sourceforge.net/DTD/sodipodi-0.dtd"
   xmlns:inkscape="http://www.inkscape.org/namespaces/inkscape"
   width="88.414413mm"
   height="23.397667mm"
   viewBox="0 0 88.414413 23.397667"
   version="1.1"
   id="svg8"
   inkscape:version="0.92.4 5da689c313, 2019-01-14"
   sodipodi:docname="signature.svg">
  <defs
     id="defs2" />
  <sodipodi:namedview
     id="base"
     pagecolor="#ffffff"
     bordercolor="#666666"
     borderopacity="1.0"
     inkscape:pageopacity="0.0"
     inkscape:pageshadow="2"
     inkscape:zoom="0.49497475"
     inkscape:cx="718.93159"
     inkscape:cy="-34.086473"
     inkscape:document-units="mm"
     inkscape:current-layer="layer1"
     showgrid="false"
     fit-margin-top="0"
     fit-margin-left="0"
     fit-margin-right="0"
     fit-margin-bottom="0"
     inkscape:window-width="1366"
     inkscape:window-height="713"
     inkscape:window-x="0"
     inkscape:window-y="0"
     inkscape:window-maximized="1" />
  <metadata
     id="metadata5">
    <rdf:RDF>
      <cc:Work
         rdf:about="">
        <dc:format>image/svg+xml</dc:format>
        <dc:type
           rdf:resource="http://purl.org/dc/dcmitype/StillImage" />
        <dc:title></dc:title>
      </cc:Work>
    </rdf:RDF>
  </metadata>
  <g
     inkscape:label="Layer 1"
     inkscape:groupmode="layer"
     id="layer1"
     transform="translate(-60.725374,-145.3869)">
    <path
       style="fill:#000000;stroke-width:0.13502541"
       id="path82"
       d="m 103.75661,152.56974 c 0.59123,0.12155 1.10993,-0.0517 1.63158,-0.3197 -0.33961,0.17309 -0.66419,0.37954 -1.01884,0.51927 -0.14119,0.0556 0.24983,-0.17254 0.37093,-0.26399 0.56719,-0.42832 1.08011,-0.91442 1.58038,-1.41752 0.75624,-0.76624 1.43685,-1.60448 2.05967,-2.4816 0.33601,-0.48238 0.64911,-0.97785 0.90326,-1.50812 0.28857,-0.58208 -0.79312,0.0606 1.52994,-0.67364 0.0396,-0.0126 -0.0229,0.08 -0.0351,0.11969 -0.0377,0.12258 -0.0773,0.2446 -0.11529,0.36708 -0.26628,0.83268 -0.53849,1.66336 -0.81139,2.49388 -0.52202,1.48909 -1.0108,2.98889 -1.49316,4.49118 -0.52578,1.71521 -1.03423,3.43554 -1.53071,5.15942 -0.36782,1.28635 -0.72139,2.57667 -1.07832,3.86604 -0.0939,0.32481 -0.17275,0.65355 -0.2552,0.98133 -0.0116,0.046 -0.0252,0.0915 -0.0359,0.13776 -0.005,0.0196 0.009,0.0519 -0.01,0.0595 -0.49063,0.20201 -0.99378,0.37217 -1.49067,0.55825 0.2029,-0.9561 0.42366,-1.90954 0.64129,-2.86276 0.43896,-1.94288 1.03222,-3.84468 1.64219,-5.73915 0.62105,-1.86238 1.34651,-3.68885 2.12631,-5.48998 0.46474,-0.98415 0.8608,-2.0273 1.54177,-2.88838 0.49875,-0.4364 1.34698,-1.30306 1.91883,-0.85518 0.20962,0.16419 0.28216,0.45318 0.35988,0.69037 0.19516,0.86061 0.15938,1.7467 0.10892,2.6207 -0.11246,1.25403 -0.3089,2.49909 -0.53117,3.73783 -0.27476,1.34744 -0.51997,2.70061 -0.79032,4.04892 -0.21192,1.14909 -0.45043,2.29298 -0.67118,3.44036 -0.1177,0.68859 -0.25794,1.37291 -0.35208,2.06533 -0.0612,0.11673 0.0105,0.29333 -0.0413,0.41173 -0.006,0.0136 0.002,-0.0488 -0.012,-0.0429 -1.45379,0.62196 -1.60814,1.16896 -1.40404,0.55832 0.19098,-0.87188 0.34285,-1.75281 0.50674,-2.63032 0.35751,-1.85596 0.77148,-3.69945 1.27551,-5.52108 0.50574,-1.76526 1.11489,-3.49804 1.81453,-5.1952 0.44369,-1.04472 0.92632,-2.07353 1.50253,-3.05215 0.38625,-0.56302 1.5199,-1.87781 2.14197,-1.25012 0.043,0.0435 0.0722,0.0988 0.10826,0.14817 0.25162,0.61341 0.22046,1.30605 0.19608,1.95668 -0.0658,1.13171 -0.30461,2.23609 -0.56998,3.33444 -0.3136,1.24556 -0.63187,2.48996 -0.95497,3.73309 -0.2669,1.1012 -0.49945,2.21089 -0.67559,3.33026 -0.12082,0.79227 -0.18785,1.5902 -0.12811,2.39027 0.0557,0.30121 0.0346,0.9528 0.33702,1.13025 0.0279,-0.005 0.0586,-0.002 0.0836,-0.0155 0.0349,-0.0185 0.12559,-0.0942 0.0901,-0.0769 -0.43134,0.21093 -0.84452,0.45858 -1.28077,0.65913 -0.0637,0.0293 0.10615,-0.0919 0.15539,-0.14178 0.13497,-0.13678 0.22822,-0.26156 0.34982,-0.41273 0.44863,-0.6534 0.89549,-1.30831 1.32763,-1.97286 0.48488,-0.77072 1.01119,-1.51313 1.58102,-2.22306 0.49607,-0.63725 1.07718,-1.19896 1.65909,-1.75608 0.81033,-0.78416 1.81244,-1.2256 2.80275,-1.75384 0.11164,-0.12182 0.59201,-0.13132 0.69716,-0.22656 0.0539,0.0877 0.1536,0.20807 0.0271,0.27744 -0.62293,0.34153 -1.15029,0.6152 -1.73513,0.92628 2.55365,-1.42125 0.81481,-0.44508 0.27028,-0.0339 -0.49053,0.3957 -0.90804,0.87247 -1.30025,1.36327 -0.41768,0.55907 -0.81396,1.13161 -1.1401,1.74915 -0.27786,0.51692 -0.45658,1.06554 -0.53966,1.64442 -0.0424,0.42717 0.0901,0.8189 0.33051,1.16654 0.22181,0.25571 0.51947,0.42645 0.86002,0.43797 0.33647,-0.008 0.64703,-0.1641 0.94434,-0.30811 -2.2192,1.23032 -1.27878,0.7497 -0.85378,0.3372 0.22475,-0.21813 0.41675,-0.46379 0.61116,-0.70839 0.60531,-0.79347 1.16121,-1.62011 1.68552,-2.46876 0.64338,-1.05669 1.10968,-2.20144 1.55468,-3.35138 0.50275,-1.3083 0.96601,-2.63121 1.51058,-3.92298 0.38892,-0.94984 0.87371,-1.85689 1.45738,-2.70057 0.39992,-0.57182 0.8429,-1.10978 1.32654,-1.61218 0.60912,-0.55987 1.52665,-1.26767 2.29382,-1.33267 0.37637,0.0885 0.34632,0.48336 0.31767,0.79169 -0.15547,0.82373 -0.44574,1.61477 -0.72129,2.40413 -0.47179,1.31444 -0.94835,2.62728 -1.41779,3.94259 -0.48657,1.29207 -0.90238,2.6081 -1.30465,3.92823 -0.30995,0.97809 -0.55133,1.97568 -0.76551,2.9785 -0.13297,0.63326 -0.2023,1.27666 -0.24184,1.92173 0.007,0.26145 -0.01,0.54962 0.17717,0.75315 0.22533,0.16401 0.50071,0.0822 0.74396,0.003 0.62787,-0.36217 -0.25386,0.14906 -1.03755,0.54275 -0.0711,0.0357 0.13557,-0.084 0.198,-0.13341 0.22866,-0.18079 0.41131,-0.4123 0.59591,-0.63514 0.42816,-0.55813 0.73332,-1.19428 1.03293,-1.82689 0.29648,-0.62257 0.58367,-1.2495 0.88295,-1.87072 0.2559,-0.54275 0.46374,-1.10554 0.69203,-1.6598 0.14826,-0.3524 0.27925,-0.7122 0.42897,-1.06394 0.27779,-0.46651 0.0696,-0.12558 1.47173,-0.59161 0.0388,-0.0129 -0.0402,0.0713 -0.0595,0.10725 -0.0947,0.17561 -0.16943,0.35881 -0.24716,0.5424 -0.2926,0.6489 -0.51115,1.32482 -0.72577,2.00224 -0.22179,0.71488 -0.39451,1.44076 -0.50273,2.18116 -0.0449,0.40266 -0.11286,0.88743 0.13436,1.23976 0.10429,0.10001 0.22996,0.13096 0.37228,0.0962 0.1545,-0.0377 0.48538,-0.24076 0.35617,-0.17511 -0.38987,0.19808 -0.77613,0.40316 -1.1642,0.60475 0.65743,-0.46304 1.14512,-1.09538 1.58907,-1.75522 0.51137,-0.83321 0.9202,-1.72526 1.31035,-2.62022 0.21496,-0.55561 0.50685,-1.08131 0.70512,-1.64349 2.2509,-2.01584 1.58252,-0.88221 1.34323,-0.41902 -0.1353,0.26188 -0.24404,0.53923 -0.36555,0.80758 -0.4063,0.84029 -0.6721,1.7336 -0.93026,2.62722 -0.2107,0.7445 -0.37283,1.50302 -0.34595,2.27941 0.074,0.48087 0.12198,0.70384 0.62626,0.79422 0.25421,-0.0167 0.49933,-0.0836 0.73328,-0.18334 0.10073,-0.043 0.39144,-0.19627 0.29551,-0.14348 -1.41761,0.78023 -1.30695,0.72199 -0.7185,0.34741 0.83658,-0.60373 1.46992,-1.42335 2.07772,-2.2447 0.85622,-1.1638 1.5479,-2.4349 2.19073,-3.72535 0.65323,-1.30958 1.16504,-2.68266 1.58559,-4.08257 0.36044,-1.16693 0.54592,-2.37301 0.66149,-3.5855 -0.0157,-0.36739 0.12234,-1.18526 -0.12924,-1.50152 -0.0185,-0.0232 -0.0527,-0.0274 -0.079,-0.041 -0.52322,0.33012 0.21709,-0.14106 1.18585,-0.58802 0.0696,-0.032 -0.12642,0.0877 -0.18187,0.14059 -0.28209,0.26898 -0.48257,0.61336 -0.68934,0.93881 -0.70915,1.23098 -1.20819,2.56549 -1.68749,3.89812 -0.54077,1.48989 -0.89074,3.03395 -1.22072,4.58071 -0.26471,1.21995 -0.38612,2.46252 -0.46541,3.70621 -0.0166,0.77965 -0.0596,1.58622 0.23729,2.32173 0.0901,0.16256 0.21298,0.34375 0.42228,0.35461 0.28737,0.015 2.24424,-1.08462 -0.80751,0.47776 0.75417,-0.56816 1.26209,-1.37574 1.73867,-2.17474 0.76399,-1.37843 1.37782,-2.83155 1.98628,-4.2831 0.67893,-1.62035 1.27173,-3.27357 1.83758,-4.93608 0.39096,-1.22609 0.78012,-2.45369 1.13929,-3.68957 0.14148,-0.5673 0.30602,-1.1338 0.36305,-1.71757 -0.002,-0.0204 0.004,-0.0434 -0.006,-0.0611 -0.007,-0.0115 -0.004,0.0264 -0.006,0.0394 -0.007,0.0275 -0.0482,0.0938 -0.0226,0.0818 0.45293,-0.21317 0.88353,-0.47105 1.33014,-0.69717 0.0402,-0.0204 -0.0748,0.0505 -0.10952,0.0792 -0.0432,0.0357 -0.0826,0.0756 -0.12393,0.11344 -0.39847,0.38776 -0.64973,0.88786 -0.90217,1.37575 -0.45964,0.9363 -0.80815,1.91702 -1.12144,2.90994 -0.35778,1.18789 -0.66173,2.39097 -0.97874,3.59012 -0.29972,1.17318 -0.52444,2.36113 -0.71843,3.55553 -0.18855,1.09128 -0.26264,2.19537 -0.18683,3.29991 0.0687,0.69092 0.23083,1.30857 0.75031,1.7905 0.43395,0.31557 0.90531,0.24572 1.3913,0.1161 0.37313,-0.15483 1.5611,-0.65672 -0.84658,0.46859 -0.10317,0.0482 0.19381,-0.12055 0.28302,-0.19132 0.32012,-0.25394 0.55306,-0.57209 0.78779,-0.90144 0.53898,-0.86976 0.84472,-1.85392 1.15839,-2.8206 0.27196,-0.90489 0.59146,-1.79515 0.84678,-2.70492 0.0272,-0.11122 0.0557,-0.22211 0.0814,-0.33368 0.0472,-0.20451 0.0966,-0.4166 0.12196,-0.62557 0.0135,-0.11106 0.0192,-0.11523 -0.004,-0.0791 -0.03,0.60241 -0.0298,0.033 1.3283,-0.59155 0.0477,-0.022 -0.0706,0.0782 -0.0997,0.12188 -0.16374,0.2454 -0.28011,0.52556 -0.40145,0.79264 -0.38585,0.92332 -0.60855,1.90588 -0.7922,2.8865 -0.18475,1.00703 -0.23502,2.02879 -0.10307,3.04402 0.0641,0.27755 0.19551,1.06236 0.61889,1.03645 0.0613,-0.004 0.11804,-0.0339 0.17707,-0.0509 0.75874,-0.4055 -0.70328,0.37773 -0.94471,0.47387 -0.11371,0.0453 0.19087,-0.15365 0.28035,-0.23716 0.34501,-0.32196 0.62925,-0.69652 0.9199,-1.0661 0.6924,-0.90498 1.22429,-1.91757 1.73833,-2.93052 0.28202,-0.58199 0.51104,-1.18583 0.73354,-1.79212 0.0681,-0.56067 0.0132,-0.19042 1.49328,-0.62698 0.052,-0.0153 -0.0145,0.10747 -0.0233,0.16098 -0.0521,0.3183 -0.10967,0.63597 -0.16548,0.95363 -0.18438,1.12823 -0.36668,2.25695 -0.56376,3.38307 -0.22309,1.24045 -0.50676,2.46873 -0.82264,3.68851 -0.24243,0.94117 -0.61602,1.82927 -1.14392,2.64395 -0.19814,0.2797 -0.43751,0.52505 -0.74317,0.68708 -1.35726,0.71951 -1.25287,0.86847 -2.29961,0.90792 -0.68085,-0.025 -1.33296,-0.23102 -1.93075,-0.54872 -0.36275,-0.22879 -0.73665,-0.5111 -0.82589,-0.95894 -0.0174,-0.0868 -0.0148,-0.17635 -0.0222,-0.26451 0.035,-0.38247 0.002,-0.18817 0.10568,-0.5819 0,0 1.45275,-0.6415 1.45275,-0.6415 v 0 c -0.11093,0.35817 -0.0727,0.1814 -0.12031,0.529 0.003,0.0761 -0.004,0.15304 0.008,0.22831 0.0631,0.40798 0.43057,0.65321 0.75128,0.85647 0.58694,0.29425 1.21954,0.48891 1.88272,0.47738 0.83782,-0.0791 1.06297,-0.3735 -0.4967,0.52534 -0.0914,0.0527 0.19071,-0.0918 0.27903,-0.14954 0.26772,-0.1751 0.28838,-0.23343 0.50034,-0.47633 0.55533,-0.79308 0.94044,-1.67308 1.19349,-2.60809 0.32328,-1.21613 0.61466,-2.44084 0.83537,-3.68023 0.19648,-1.11838 0.36847,-2.24128 0.52925,-3.36529 0.0462,-0.30887 0.0971,-0.61922 0.13358,-0.92947 0.006,-0.0501 -0.0335,-0.12595 0.0102,-0.15085 0.48021,-0.27292 0.99883,-0.47189 1.49876,-0.70674 0.01,-0.005 -0.019,0.0107 -0.0285,0.0161 -0.10413,0.19415 -0.17407,0.40353 -0.2579,0.60714 -0.16879,0.40995 -0.35144,0.81369 -0.5336,1.21782 -0.52105,1.01454 -1.04504,2.03605 -1.72437,2.95607 -0.8384,1.10197 -1.52597,1.91583 -3.01309,2.32362 -0.0731,-0.003 -0.14841,0.01 -0.21942,-0.008 -0.49201,-0.12295 -0.57545,-0.81326 -0.66898,-1.20814 -0.13008,-1.0318 -0.0782,-2.07161 0.10034,-3.09587 0.17652,-0.98417 0.39172,-1.96951 0.74795,-2.90599 0.29322,-0.7089 0.9421,-2.32768 2.04856,-1.73609 0.0166,0.0296 0.042,0.0557 0.05,0.0886 0.0546,0.22729 -0.2154,0.87286 -0.23331,1.10804 -0.26072,0.91469 -0.59269,1.80711 -0.86408,2.71874 -0.31228,0.97414 -0.61656,1.9633 -1.12658,2.85595 -0.22225,0.33813 -0.44896,0.67597 -0.75397,0.94792 -0.0851,0.0759 -0.17489,0.14849 -0.2741,0.20475 -1.52011,0.86202 -1.10292,0.70288 -1.94148,0.98858 -0.55839,0.11658 -1.01263,0.12385 -1.48109,-0.24893 -0.53191,-0.54285 -0.70067,-1.16306 -0.77179,-1.90983 -0.0697,-1.11772 5.1e-4,-2.23542 0.18978,-3.33985 0.19193,-1.19914 0.41627,-2.39133 0.71263,-3.56979 0.32058,-1.19959 0.62616,-2.40339 0.97447,-3.59537 0.30591,-0.9932 0.63903,-1.9762 1.0796,-2.91938 0.23836,-0.49337 0.47577,-1.00345 0.85211,-1.4089 0.47491,-0.54209 0.84889,-0.61625 1.71644,-1.03413 0.065,-0.0313 0.1605,0.0897 0.17681,0.12663 0.0136,0.0307 0.009,0.0664 0.0134,0.0996 -0.0786,0.60061 -0.25248,1.18308 -0.40713,1.76729 -0.37078,1.24517 -0.78688,2.47705 -1.18049,3.71512 -0.57749,1.66357 -1.1686,3.32246 -1.84439,4.94927 -0.59724,1.44936 -1.20104,2.8988 -1.93709,4.28463 -0.46139,0.80673 -0.95151,1.60853 -1.66074,2.22505 -0.54122,0.29533 -1.07382,0.60707 -1.62367,0.886 -0.38898,0.19733 -0.74207,-0.12046 -0.90196,-0.446 -0.0357,-0.0922 -0.0794,-0.18157 -0.10703,-0.27645 -0.19958,-0.6865 -0.1224,-1.42371 -0.12326,-2.12637 0.0883,-1.25445 0.21365,-2.50864 0.48363,-3.73904 0.33735,-1.55298 0.69104,-3.10395 1.22479,-4.60403 0.46939,-1.32971 0.95592,-2.65963 1.62338,-3.90553 0.49023,-0.83215 1.34261,-2.19046 2.5241,-1.90418 0.0359,0.037 0.08,0.0676 0.1075,0.11118 0.25786,0.40874 0.10865,1.14928 0.11654,1.5993 -0.12469,1.22464 -0.31668,2.44319 -0.67478,3.62396 -0.4192,1.40986 -0.9359,2.79083 -1.58725,4.11127 -0.63564,1.29155 -1.31523,2.56667 -2.15526,3.7392 -0.59819,0.82644 -1.21483,1.65297 -2.02751,2.28438 -0.81979,0.56753 -0.37951,0.28116 -2.02806,1.1348 -0.34134,0.17676 -0.72375,0.28684 -1.10919,0.25196 -0.52027,-0.16357 -0.64586,-0.45908 -0.7139,-0.98169 -0.0253,-0.79682 0.1411,-1.57419 0.35634,-2.33856 0.25721,-0.89333 0.51025,-1.7901 0.89881,-2.6378 0.21639,-0.4854 0.0635,-0.13084 0.24637,-0.58263 0.0121,-0.0298 0.15665,-0.3809 0.16369,-0.38488 1.56038,-0.88026 1.5158,-1.31662 1.55037,-0.68183 -0.21,0.57438 -0.53569,1.10254 -0.75202,1.67491 -0.39109,0.90094 -0.80316,1.79693 -1.30007,2.64497 -0.43108,0.66969 -0.90288,1.30758 -1.53479,1.80426 -0.5379,0.29877 -1.0718,0.60486 -1.61369,0.89633 -0.30168,0.16226 -0.62817,0.1548 -0.86321,-0.10915 -0.25495,-0.40425 -0.22624,-0.89823 -0.16384,-1.35599 0.1155,-0.74864 0.28345,-1.48455 0.50541,-2.20924 0.2107,-0.67577 0.41676,-1.35281 0.69603,-2.00448 0.0736,-0.18242 0.13417,-0.37716 0.22062,-0.55412 0.24699,-0.50556 1.73119,-1.40661 1.57915,-0.76171 -0.18912,0.33829 -0.30559,0.71364 -0.46063,1.06765 -0.24107,0.55313 -0.43911,1.12442 -0.69707,1.67071 -0.30317,0.62032 -0.58918,1.24866 -0.88807,1.87102 -0.30021,0.63856 -0.59931,1.28212 -1.01114,1.85859 -0.17849,0.22762 -0.35802,0.47159 -0.57017,0.67005 -0.54642,0.51116 -1.2744,0.80391 -1.96432,1.08157 -0.30503,0.0658 -0.61188,0.0843 -0.85115,-0.15101 -0.20302,-0.25528 -0.2195,-0.55357 -0.21675,-0.87232 0.051,-0.65654 0.12709,-1.31182 0.26398,-1.95664 0.219,-1.01121 0.46806,-2.01649 0.78488,-3.00202 0.41442,-1.32297 0.83053,-2.64563 1.32176,-3.94274 0.46475,-1.30904 0.93453,-2.61623 1.38969,-3.92861 0.26193,-0.77236 0.53253,-1.54634 0.68616,-2.34915 0.0211,-0.17929 0.11467,-0.57083 -0.18322,-0.52434 -0.55909,0.16993 -0.1473,0.0518 1.18977,-0.67619 0.0483,-0.0263 -0.0958,0.0543 -0.14249,0.0834 -0.19324,0.12052 -0.3673,0.26474 -0.5369,0.4164 -0.49551,0.49486 -0.95017,1.02507 -1.35613,1.59661 -0.60368,0.8335 -1.10467,1.73671 -1.50559,2.68502 -0.55761,1.28501 -1.02078,2.60685 -1.51304,3.91775 -0.43948,1.15484 -0.89308,2.30753 -1.52988,3.37149 -0.51421,0.84724 -1.05887,1.67283 -1.64599,2.47151 -0.82296,1.08399 -1.04575,1.20852 -2.51034,1.91851 -0.31643,0.14144 -0.64733,0.27879 -1.00151,0.23859 -0.37011,-0.0752 -0.68739,-0.26182 -0.92544,-0.55941 -0.25167,-0.38397 -0.41087,-0.80834 -0.374,-1.27489 0.0769,-0.59704 0.24657,-1.16532 0.53007,-1.6995 0.31825,-0.62918 0.71426,-1.20795 1.12998,-1.77648 0.38022,-0.5021 0.79955,-0.97964 1.27451,-1.39463 0.75623,-0.62111 1.65774,-1.02151 2.51071,-1.49085 0.52344,-0.25771 1.3043,-0.68869 -1.07988,0.59879 -0.0186,0.01 0.0326,-0.0388 0.0533,-0.0343 0.0271,0.006 0.0417,0.037 0.0587,0.059 0.0286,0.0368 0.0517,0.0775 0.0776,0.11624 -0.22724,-0.007 -0.45329,0.15403 -0.65989,0.22099 2.31507,-1.25871 1.16946,-0.6751 0.71243,-0.3724 -0.26993,0.17878 -0.51906,0.39158 -0.76414,0.60197 -0.58674,0.55255 -1.17634,1.10794 -1.67753,1.74148 -0.57648,0.70081 -1.10686,1.43707 -1.58728,2.20731 -0.42696,0.66361 -0.87567,1.31209 -1.30092,1.97678 -0.64024,0.85481 -0.65067,0.74058 -2.00282,1.44153 -0.0959,0.0497 -0.18577,-0.0113 -0.26669,-0.0463 -0.32454,-0.31983 -0.31079,-0.83836 -0.36812,-1.26177 -0.0565,-0.81573 0.006,-1.62858 0.13922,-2.43515 0.17957,-1.12684 0.42046,-2.24225 0.6862,-3.35178 0.32696,-1.24117 0.64492,-2.48471 0.95525,-3.73014 0.26327,-1.0845 0.49791,-2.17502 0.55604,-3.29332 0.0187,-0.60826 0.0471,-1.26179 -0.18586,-1.8355 -0.0258,-0.0282 -0.0448,-0.0647 -0.0774,-0.0846 -0.0202,-0.0123 -0.0471,-0.004 -0.0706,-0.006 0.42849,-0.24049 0.85698,-0.48098 1.28547,-0.72146 0.0531,-0.0291 -0.10538,0.061 -0.15179,0.0999 -0.16893,0.14168 -0.23515,0.25029 -0.37326,0.42917 -0.61579,0.96769 -1.10754,2.00688 -1.56999,3.05485 -0.72125,1.69338 -1.34842,3.425 -1.8592,5.1941 -0.50222,1.8072 -0.90532,3.63804 -1.23109,5.4854 -0.14313,0.86554 -0.28425,1.73152 -0.4192,2.59819 -0.085,0.67701 -1.46704,1.3593 -1.5337,0.82609 -0.01,-0.0779 0.0236,-0.15524 0.0345,-0.23298 0.009,-0.0642 0.0185,-0.12836 0.0278,-0.19253 0.10697,-0.70093 0.26198,-1.39264 0.38772,-2.09022 0.2297,-1.1513 0.48151,-2.29818 0.69584,-3.45259 0.27599,-1.34617 0.51546,-2.69945 0.79146,-4.04564 0.22018,-1.22924 0.4115,-2.46517 0.51646,-3.71016 0.0432,-0.85105 0.0808,-1.71446 -0.11632,-2.55114 -0.0598,-0.17554 -0.0854,-0.30202 -0.19522,-0.45062 -0.0288,-0.0389 -0.0631,-0.0776 -0.10685,-0.0983 -0.0387,-0.0182 -0.16387,0.0109 -0.12791,-0.0123 0.33377,-0.21603 1.79565,-1.04892 1.04214,-0.58019 -0.75698,0.81554 -1.14732,1.8968 -1.63671,2.878 -0.80317,1.7975 -1.54547,3.6242 -2.16981,5.49212 -0.60489,1.88005 -1.18867,3.7696 -1.59734,5.70391 -0.19737,0.92744 -0.38454,1.8575 -0.55812,2.78961 -0.4978,0.24354 -0.9976,0.483 -1.49339,0.73062 -0.0146,0.007 0.0386,0.004 0.0481,-0.009 0.0286,-0.04 0.04,-0.09 0.0557,-0.13655 0.11083,-0.32889 0.17883,-0.67119 0.29121,-0.99966 0.38538,-1.29445 0.75187,-2.59449 1.13251,-3.89036 0.50289,-1.72296 1.01017,-3.44459 1.52865,-5.16296 0.4757,-1.49434 0.95123,-2.98843 1.45333,-4.4742 0.25963,-0.81956 0.51115,-1.64155 0.75648,-2.46551 0.005,-0.0171 0.11889,-0.45292 0.1329,-0.45996 0.49421,-0.24855 1.00848,-0.45503 1.51271,-0.68256 -0.0459,0.002 -0.0152,-0.004 -0.0712,0.0616 -0.29352,0.52954 -0.58017,1.06116 -0.94383,1.54863 -0.62584,0.88456 -1.30868,1.73154 -2.06347,2.50988 -0.38036,0.391 -0.76398,0.76928 -1.17939,1.12342 -0.11058,0.0943 -0.59983,0.5035 -0.73679,0.58441 -0.56475,0.33358 -1.1466,0.63733 -1.7199,0.95601 -0.56565,0.2502 -1.11754,0.39686 -1.73396,0.24423 0,0 1.362,-0.87274 1.362,-0.87274 z"
       inkscape:connector-curvature="0" />
    <path
       style="fill:#000000;stroke-width:0.13502541"
       id="path84"
       d="m 139.53138,151.43098 c 0.6963,0.0653 1.39223,0.13516 2.0905,0.18267 1.20445,0.0907 2.41293,0.0679 3.61974,0.0697 0.21156,0.001 0.42314,0.002 0.63472,0.003 0,0 -1.26646,0.86681 -1.26646,0.86681 v 0 c -0.21086,-0.001 -0.42171,-0.003 -0.63256,-0.004 -1.21583,-0.002 -2.43294,0.0212 -3.64685,-0.0632 -0.71264,-0.0444 -1.42368,-0.11873 -2.13688,-0.14462 0,0 1.3378,-0.9107 1.3378,-0.9107 z"
       inkscape:connector-curvature="0" />
    <path
       style="fill:#000000;stroke-width:0.13502541"
       id="path106"
       d="m 64.626443,154.87385 c 0.50264,0.43072 1.2,0.44884 1.82826,0.46622 1.30772,-0.055 2.55768,-0.47071 3.76998,-0.93301 0.74734,-0.28176 1.44207,-0.6766 2.15466,-1.03167 0.19833,-0.0988 -0.72009,0.48736 -0.58861,0.30898 0.16079,-0.21815 0.4587,-0.28883 0.68436,-0.4389 0.22029,-0.14648 0.43553,-0.30042 0.65329,-0.45064 1.05878,-0.7336 1.95892,-1.63994 2.66735,-2.71254 0.15495,-0.30709 0.52541,-0.99222 0.2037,-1.31916 -0.0372,-0.0378 -0.0913,-0.054 -0.13689,-0.0809 -0.24319,-0.0464 -0.48737,-0.0212 -0.72085,0.062 -0.10623,0.0378 -0.40606,0.19541 -0.3085,0.13886 1.53545,-0.89004 1.19372,-0.67205 0.66407,-0.30346 -0.87193,0.6649 -1.53777,1.54204 -2.18645,2.41468 -0.82174,1.09427 -1.54572,2.2568 -2.23074,3.44009 -0.73966,1.31524 -1.44522,2.64858 -2.21156,3.94878 -0.73044,1.22966 -1.6213,2.34774 -2.5381,3.44087 -0.65767,0.76462 -1.36488,1.48285 -2.15488,2.11023 -0.75024,0.50802 -0.63071,0.44118 -1.97729,1.12416 -0.1546,0.0784 -0.41332,0.11214 -0.58612,0.0913 -0.22721,-0.0274 -0.29077,-0.0921 -0.48084,-0.20538 -0.52593,-0.5154 -0.43537,-1.24326 -0.30683,-1.90327 0.22247,-0.85658 0.64299,-1.49099 1.29448,-2.07846 0.75135,-0.53815 0.5259,-0.39561 1.9726,-1.12125 0.13692,-0.0687 0.46411,-0.12322 0.61763,-0.12262 0.23481,0.001 0.40627,0.0585 0.63128,0.11496 0.76349,0.28766 1.44975,0.73956 2.16012,1.1338 0.8582,0.48138 1.79059,0.78658 2.74318,1.01445 1.06135,0.22309 2.14412,0.27727 3.22486,0.23911 0.80511,-0.0489 1.57753,-0.27285 2.33948,-0.52072 0,0 -1.23087,0.92299 -1.23087,0.92299 v 0 c -0.77268,0.23846 -1.55469,0.45395 -2.36821,0.48907 -1.09269,0.0294 -2.1879,-0.0299 -3.25845,-0.26688 -0.96232,-0.23984 -1.90386,-0.55675 -2.77189,-1.04522 -0.70296,-0.38777 -1.38715,-0.83381 -2.15532,-1.08324 -0.31115,-0.0604 -0.57651,-0.0972 -0.88904,-0.0134 -0.10082,0.0271 -0.38217,0.16196 -0.29541,0.10393 0.23689,-0.15845 1.68,-0.99239 0.74861,-0.41302 -0.1,0.08 -0.20685,0.15209 -0.3,0.23996 -0.49934,0.47101 -0.84608,1.08882 -1.03643,1.74277 -0.10488,0.48582 -0.24188,1.10479 0.0706,1.55369 0.0433,0.0622 0.10716,0.10706 0.16075,0.16057 0.2357,0.11418 0.41701,0.16604 0.68202,0.0996 0.0975,-0.0244 0.36808,-0.15708 0.28369,-0.10243 -0.2358,0.15268 -1.6947,0.97983 -0.73896,0.40513 0.8096,-0.6147 1.52876,-1.33045 2.20014,-2.09312 0.92447,-1.0883 1.8309,-2.1963 2.56624,-3.42511 0.77067,-1.29519 1.47282,-2.62771 2.20575,-3.94419 0.67763,-1.18626 1.39516,-2.35162 2.20948,-3.44993 0.64007,-0.87633 1.29038,-1.7606 2.14097,-2.44784 0.81229,-0.61802 0.45528,-0.37284 2.05901,-1.20901 0.352,-0.18353 0.7723,-0.22664 1.14115,-0.0821 0.0565,0.047 0.12291,0.084 0.16947,0.14083 0.35886,0.43781 0.033,1.07598 -0.16991,1.49592 -0.713,1.0968 -1.61779,2.03135 -2.69077,2.78527 -0.33412,0.23289 -0.98767,0.69802 -1.33727,0.90267 -1.35412,0.79267 -2.72872,1.56811 -4.18677,2.15588 -1.23552,0.46035 -2.50864,0.87578 -3.83937,0.90858 -0.68025,-0.0269 -1.40342,-0.0728 -1.945,-0.53635 0,0 1.39416,-0.82147 1.39416,-0.82147 z"
       inkscape:connector-curvature="0" />
    <path
       style="fill:#000000;stroke-width:0.13502541"
       id="path108"
       d="m 74.904573,156.02055 c 0.42066,-0.48299 0.87593,-0.92912 1.37641,-1.3284 0.30452,-0.2306 0.6128,-0.46224 0.95063,-0.64303 1.59147,-0.85166 0.97898,-0.79731 1.72271,-0.8368 0.47245,0.14862 0.24535,0.74166 0.15933,1.08104 -0.29165,1.06745 -0.65168,2.11462 -0.99896,3.16483 -0.37673,1.17224 -0.74365,2.34765 -1.07378,3.53395 -0.0661,0.32851 -0.31451,1.07782 -0.17278,1.41062 0.0122,0.0287 0.0427,0.0456 0.0641,0.0684 0.0348,0.009 0.0686,0.0264 0.10445,0.0255 0.1011,-0.003 0.24709,-0.0716 0.32763,-0.11447 0.0739,-0.0393 0.2897,-0.16764 0.21517,-0.12952 -1.14047,0.58337 -1.46536,0.8619 -0.80371,0.35095 0.83158,-0.72983 1.51059,-1.60361 2.15345,-2.49808 0.75669,-1.0665 1.36973,-2.22174 1.95614,-3.38743 0.3756,-0.79788 0.75708,-1.59325 1.12484,-2.3948 0.0604,-0.0177 0.10348,-0.34596 0.14433,-0.37512 0.0125,-0.009 -5e-5,0.05 0.0142,0.044 1.25241,-0.53184 1.87885,-0.95821 1.34489,-0.60034 -0.35903,0.45038 -0.59368,0.99068 -0.84708,1.5047 -0.46773,0.97999 -0.85476,1.99503 -1.24503,3.00748 -0.40549,1.07514 -0.76305,2.16835 -1.08937,3.26995 -0.15582,0.5876 -0.33088,1.21879 -0.14088,1.8169 0.19202,0.32067 0.54468,0.13999 0.79941,-0.002 -2.19868,1.24114 -1.17981,0.70681 -0.76995,0.27188 0.22478,-0.23852 0.39563,-0.50908 0.56627,-0.78682 0.43949,-0.75654 0.75781,-1.57416 1.08768,-2.38218 0.37982,-0.94763 0.86656,-1.84561 1.3855,-2.72286 0.48121,-0.81338 1.0178,-1.59031 1.64202,-2.30007 0.7398,-0.78565 1.69812,-1.39313 2.71337,-1.75637 0.39752,-0.0756 0.51057,0.14636 0.53682,0.50139 -0.0241,0.64559 -0.23813,1.26616 -0.4165,1.88172 -0.30176,1.09318 -0.67192,2.16553 -1.01498,3.24603 -0.30834,1.00802 -0.60155,2.02044 -0.96658,3.00978 -0.20982,0.53246 -0.44754,1.05384 -0.69417,1.5702 -0.31721,0.62643 0.11276,0.25861 -1.57705,0.79374 -0.0479,0.0152 -0.0176,-0.0998 -0.0155,-0.15001 0.005,-0.12271 0.0684,-0.34818 0.0943,-0.45373 0.3101,-1.0643 0.6839,-2.10793 1.08218,-3.14192 0.57655,-1.46579 1.32474,-2.85 2.14008,-4.19419 0.59111,-0.92711 1.23263,-1.8279 2.01729,-2.60164 0.58886,-0.53956 1.21838,-0.81515 1.97801,-1.20254 0.1636,-0.0834 0.26306,0.0686 0.32609,0.17936 0.0645,0.50068 -0.11912,1.01629 -0.25239,1.49463 -0.30479,0.93843 -0.66369,1.85852 -1.04322,2.76893 -0.43398,1.07119 -0.85915,2.14806 -1.21693,3.24743 -0.24202,0.79473 -0.41468,1.60911 -0.42175,2.44167 0.0105,0.17121 0.005,0.24452 0.0481,0.40178 0.0123,0.0443 0.0446,0.13986 0.081,0.11171 0.0251,-0.0194 0.0771,-0.0953 0.0485,-0.0817 -0.43785,0.208 -0.85994,0.44767 -1.28991,0.6715 0.57468,-0.64603 0.9495,-1.44837 1.37051,-2.19778 0.70817,-1.26534 1.46046,-2.50505 2.30631,-3.68313 0.78073,-1.08008 1.69841,-2.04109 2.6788,-2.93912 0.69816,-0.60765 1.47705,-1.11076 2.27482,-1.57582 0.63863,-0.3721 0.68543,-0.40136 1.73793,-0.97044 0.15323,-0.0829 0.19167,0.15482 0.13341,0.24826 -0.0266,0.0426 -0.0784,0.0628 -0.11753,0.0942 -0.53191,0.36929 -1.04232,0.76746 -1.52829,1.19512 -0.77995,0.68844 -1.47313,1.45939 -2.11513,2.2757 -0.68539,0.88146 -1.18875,1.87931 -1.62764,2.90058 -0.30329,0.76353 -0.54773,1.54563 -0.61671,2.36622 0.004,0.20594 -0.0241,0.70372 0.31478,0.65475 0.0601,-0.009 0.11686,-0.0332 0.17529,-0.0499 0.0727,-0.0332 0.14549,-0.0665 0.21824,-0.0997 -0.36962,0.19964 -0.73103,0.41528 -1.10885,0.59892 -0.11468,0.0557 0.21499,-0.13758 0.31701,-0.21407 0.12008,-0.09 0.23704,-0.18457 0.34857,-0.285 0.29468,-0.26535 0.45529,-0.45922 0.72372,-0.75612 0.82776,-0.94128 1.55233,-1.96506 2.22126,-3.02329 0.55015,-0.85686 1.01086,-1.76354 1.37086,-2.71528 0.48455,-1.79012 -0.57523,-0.87215 1.40111,-1.85355 0.19984,0.7739 -0.71202,1.54223 -1.04058,2.55692 -0.27662,1.04055 -0.42924,2.10664 -0.42685,3.1827 0.0436,0.65734 0.22951,1.32833 0.76099,1.76321 0.093,0.0761 0.20132,0.13123 0.30198,0.19685 0.82915,0.42301 1.74309,0.33651 2.63552,0.2359 0.739177,-0.13729 0.366247,-0.0573 1.118397,-0.24168 l -1.239607,0.91571 v 0 c -0.76507,0.17905 -0.38568,0.10256 -1.13777,0.23144 -0.92713,0.0961 -1.87255,0.15676 -2.71765,-0.31321 -0.10684,-0.0749 -0.22181,-0.13936 -0.32051,-0.22469 -0.54827,-0.47402 -0.75174,-1.18049 -0.79875,-1.87821 -0.005,-1.08711 0.14829,-2.1643 0.4104,-3.21951 0.19675,-0.77594 0.41936,-1.55323 0.76048,-2.27966 0.38979,-0.73669 0.38101,-1.59613 1.58385,-2.26268 0.0993,-0.055 0.28567,1.14655 0.32582,1.20649 0.13227,0.4539 -0.0326,0.91255 -0.18044,1.34341 -0.36595,0.96676 -0.83677,1.8874 -1.39365,2.75882 -0.6621,1.06286 -1.38407,2.08856 -2.19842,3.04133 -0.24184,0.27852 -0.43619,0.51554 -0.70074,0.77081 -0.70479,0.68006 -1.61255,1.20895 -2.53505,1.50422 -0.0727,10e-4 -0.14646,0.0149 -0.21796,0.002 -0.3906,-0.0707 -0.40267,-0.55738 -0.40323,-0.86079 0.0763,-0.84108 0.31762,-1.64314 0.62941,-2.42682 0.43877,-1.0309 0.93617,-2.04225 1.61592,-2.93904 0.63379,-0.81952 1.31196,-1.59944 2.08452,-2.29299 0.46788,-0.42993 0.96499,-0.82376 1.47922,-1.19691 0.0802,-0.0481 0.11736,-0.10927 0.20734,-0.0424 0.0314,0.0233 0.0657,0.0545 0.0711,0.0933 0.003,0.0204 -0.072,0.0396 -0.0541,0.0295 1.35861,-0.7582 1.64916,-0.92702 1.01843,-0.56361 -0.81645,0.4547 -1.6069,0.961 -2.32677,1.55904 -0.99168,0.88842 -1.91989,1.84113 -2.70959,2.9172 -0.8504,1.1649 -1.60352,2.39475 -2.29691,3.65934 -0.41069,0.74797 -0.78231,1.52412 -1.28065,2.21916 -1.13288,0.65137 -1.77759,1.50192 -1.81722,0.17818 0.0119,-0.85259 0.19246,-1.68713 0.4376,-2.50161 0.35797,-1.10288 0.78726,-2.18184 1.21361,-3.25964 0.37489,-0.89896 0.72313,-1.80948 1.02056,-2.73727 0.12223,-0.44541 0.25549,-0.90236 0.26969,-1.36621 -0.0208,-0.0559 -0.22941,0.0488 -0.17799,0.0186 2.33132,-1.37087 1.20706,-0.73476 0.75834,-0.35601 -0.82395,0.74798 -1.47414,1.66051 -2.08502,2.58538 -0.82521,1.33066 -1.57879,2.70402 -2.14743,4.16666 -0.3843,1.01619 -0.74365,2.04236 -1.0239,3.09281 -0.10351,0.45585 -0.017,0.0637 -0.0882,0.40989 -0.005,0.0236 0.005,0.059 -0.0159,0.0705 -0.47435,0.25777 -0.97102,0.47262 -1.44821,0.7251 -0.0182,0.01 0.0441,0.0205 0.061,0.009 0.0321,-0.0221 0.0442,-0.0642 0.0662,-0.0963 0.26914,-0.51219 0.51069,-1.03875 0.73665,-1.57115 0.38527,-0.98734 0.6946,-2.00018 0.9993,-3.01486 0.33806,-1.07363 0.70393,-2.13942 0.98863,-3.22896 0.1655,-0.59644 0.36706,-1.19634 0.40007,-1.81834 0.002,-0.30994 -0.082,-0.33628 -0.37137,-0.24293 -0.56943,0.25292 -0.34852,0.16134 1.0105,-0.58991 0.0757,-0.0418 -0.14984,0.0868 -0.22165,0.1351 -0.27938,0.18782 -0.54216,0.40304 -0.76826,0.65299 -0.64157,0.6939 -1.18379,1.4667 -1.66818,2.27769 -0.52147,0.86852 -1.0104,1.75827 -1.39077,2.69907 -0.32353,0.81027 -0.63957,1.62717 -1.05726,2.39485 -0.68515,1.19936 -1.12965,1.39415 -2.52119,2.11214 -0.38965,0.15221 -0.72321,0.19202 -0.94868,-0.2267 -0.20018,-0.63523 -0.0329,-1.29924 0.14278,-1.92317 0.33697,-1.10525 0.6995,-2.20357 1.10037,-3.28734 0.38349,-1.01039 0.76411,-2.02275 1.21132,-3.00713 0.24528,-0.51671 0.48031,-1.04271 0.78322,-1.52877 0.48093,-0.80862 2.12228,-1.31828 1.459,-0.3075 -0.39537,0.80471 -0.7921,1.60851 -1.17371,2.41992 -0.5896,1.17046 -1.20144,2.33294 -1.95154,3.41067 -0.6295,0.89738 -1.29515,1.76966 -2.09744,2.52229 -0.75788,0.62887 -0.27747,0.25732 -1.92579,1.19312 -0.25695,0.14587 -0.53589,0.23719 -0.7899,0.0427 -0.0312,-0.0457 -0.073,-0.0857 -0.0937,-0.13703 -0.16159,-0.40034 0.10696,-1.11095 0.18884,-1.50099 0.34477,-1.18983 0.72567,-2.36855 1.09571,-3.5506 0.33617,-1.03733 0.68556,-2.07209 0.95072,-3.13042 0.0311,-0.12765 0.19279,-0.62542 0.11597,-0.76156 -0.029,-0.0514 -0.0981,-0.0354 -0.14058,-0.0357 -0.5807,0.14964 -0.14756,0.05 1.08599,-0.65863 0.0686,-0.0394 -0.13948,0.0746 -0.20814,0.11384 -0.26792,0.15305 -0.52362,0.32489 -0.76771,0.51382 -0.49899,0.3784 -0.95553,0.80214 -1.35504,1.28605 l -1.49826,0.60616 z"
       inkscape:connector-curvature="0"
       sodipodi:nodetypes="ccccccccccccccccccccccccccccccccccccccccccccccccccccccccccccccccccccccccccccccccccccccccccccccccccccccccccccccccccccccccccccccccccccccccccccccccccccccccccccc" />
  </g>
</svg>
